{
  "page": 1,
  "page_size": 100,
  "total_pages": 2,
  "total_rows": 150,
  "account_id": "act_mock_1001",
  "data": [
    {
      "date": "2026-05-18",
      "ad_id": "ad_a",
      "campaign_id": "camp_100",
      "account_id": "act_mock_1001",
      "impressions": 38000,
      "clicks": 456,
      "spend": 72,
      "conversions": 14,
      "ctr": 0.012,
      "frequency": 2
    },
    {
      "date": "2026-05-18",
      "ad_id": "ad_b",
      "campaign_id": "camp_100",
      "account_id": "act_mock_1001",
      "impressions": 22000,
      "clicks": 242,
      "spend": 45,
      "conversions": 10,
      "ctr": 0.011,
      "frequency": 1.8
    },
    {
      "date": "2026-05-18",
      "ad_id": "ad_c",
      "campaign_id": "camp_200",
      "account_id": "act_mock_1001",
      "impressions": 30000,
      "clicks": 240,
      "spend": 75,
      "conversions": 6,
      "ctr": 0.008,
      "frequency": 2
    },
    {
      "date": "2026-05-18",
      "ad_id": "ad_e",
      "campaign_id": "camp_300",
      "account_id": "act_mock_1001",
      "impressions": 15000,
      "clicks": 105,
      "spend": 35,
      "conversions": 4,
      "ctr": 0.007,
      "frequency": 1.5
    },
    {
      "date": "2026-05-18",
      "ad_id": "ad_f",
      "campaign_id": "camp_300",
      "account_id": "act_mock_1001",
      "impressions": 12000,
      "clicks": 72,
      "spend": 28,
      "conversions": 3,
      "ctr": 0.006,
      "frequency": 1.3
    },
    {
      "date": "2026-05-19",
      "ad_id": "ad_a",
      "campaign_id": "camp_100",
      "account_id": "act_mock_1001",
      "impressions": 38080,
      "clicks": 457,
      "spend": 73.5,
      "conversions": 15,
      "ctr": 0.012001,
      "frequency": 2
    },
    {
      "date": "2026-05-19",
      "ad_id": "ad_b",
      "campaign_id": "camp_100",
      "account_id": "act_mock_1001",
      "impressions": 22050,
      "clicks": 247,
      "spend": 45.8,
      "conversions": 11,
      "ctr": 0.011202,
      "frequency": 1.85
    },
    {
      "date": "2026-05-19",
      "ad_id": "ad_c",
      "campaign_id": "camp_200",
      "account_id": "act_mock_1001",
      "impressions": 30100,
      "clicks": 241,
      "spend": 76.2,
      "conversions": 7,
      "ctr": 0.008007,
      "frequency": 2
    },
    {
      "date": "2026-05-19",
      "ad_id": "ad_e",
      "campaign_id": "camp_300",
      "account_id": "act_mock_1001",
      "impressions": 15040,
      "clicks": 105,
      "spend": 35.5,
      "conversions": 5,
      "ctr": 0.006981,
      "frequency": 1.5
    },
    {
      "date": "2026-05-19",
      "ad_id": "ad_f",
      "campaign_id": "camp_300",
      "account_id": "act_mock_1001",
      "impressions": 12030,
      "clicks": 72,
      "spend": 28.4,
      "conversions": 3,
      "ctr": 0.005985,
      "frequency": 1.3
    },
    {
      "date": "2026-05-20",
      "ad_id": "ad_a",
      "campaign_id": "camp_100",
      "account_id": "act_mock_1001",
      "impressions": 38160,
      "clicks": 458,
      "spend": 75,
      "conversions": 16,
      "ctr": 0.012002,
      "frequency": 2.01
    },
    {
      "date": "2026-05-20",
      "ad_id": "ad_b",
      "campaign_id": "camp_100",
      "account_id": "act_mock_1001",
      "impressions": 22100,
      "clicks": 252,
      "spend": 46.6,
      "conversions": 12,
      "ctr": 0.011403,
      "frequency": 1.9
    },
    {
      "date": "2026-05-20",
      "ad_id": "ad_c",
      "campaign_id": "camp_200",
      "account_id": "act_mock_1001",
      "impressions": 30200,
      "clicks": 242,
      "spend": 77.4,
      "conversions": 6,
      "ctr": 0.008013,
      "frequency": 2
    },
    {
      "date": "2026-05-20",
      "ad_id": "ad_e",
      "campaign_id": "camp_300",
      "account_id": "act_mock_1001",
      "impressions": 15080,
      "clicks": 106,
      "spend": 36,
      "conversions": 4,
      "ctr": 0.007029,
      "frequency": 1.5
    },
    {
      "date": "2026-05-20",
      "ad_id": "ad_f",
      "campaign_id": "camp_300",
      "account_id": "act_mock_1001",
      "impressions": 12060,
      "clicks": 72,
      "spend": 28.8,
      "conversions": 3,
      "ctr": 0.00597,
      "frequency": 1.3
    },
    {
      "date": "2026-05-21",
      "ad_id": "ad_a",
      "campaign_id": "camp_100",
      "account_id": "act_mock_1001",
      "impressions": 38240,
      "clicks": 459,
      "spend": 76.5,
      "conversions": 17,
      "ctr": 0.012003,
      "frequency": 2.02
    },
    {
      "date": "2026-05-21",
      "ad_id": "ad_b",
      "campaign_id": "camp_100",
      "account_id": "act_mock_1001",
      "impressions": 22150,
      "clicks": 257,
      "spend": 47.4,
      "conversions": 10,
      "ctr": 0.011603,
      "frequency": 1.95
    },
    {
      "date": "2026-05-21",
      "ad_id": "ad_c",
      "campaign_id": "camp_200",
      "account_id": "act_mock_1001",
      "impressions": 30300,
      "clicks": 242,
      "spend": 78.6,
      "conversions": 7,
      "ctr": 0.007987,
      "frequency": 2
    },
    {
      "date": "2026-05-21",
      "ad_id": "ad_e",
      "campaign_id": "camp_300",
      "account_id": "act_mock_1001",
      "impressions": 15120,
      "clicks": 106,
      "spend": 36.5,
      "conversions": 5,
      "ctr": 0.007011,
      "frequency": 1.5
    },
    {
      "date": "2026-05-21",
      "ad_id": "ad_f",
      "campaign_id": "camp_300",
      "account_id": "act_mock_1001",
      "impressions": 12090,
      "clicks": 73,
      "spend": 29.2,
      "conversions": 3,
      "ctr": 0.006038,
      "frequency": 1.3
    },
    {
      "date": "2026-05-22",
      "ad_id": "ad_a",
      "campaign_id": "camp_100",
      "account_id": "act_mock_1001",
      "impressions": 38320,
      "clicks": 460,
      "spend": 78,
      "conversions": 14,
      "ctr": 0.012004,
      "frequency": 2.02
    },
    {
      "date": "2026-05-22",
      "ad_id": "ad_b",
      "campaign_id": "camp_100",
      "account_id": "act_mock_1001",
      "impressions": 22200,
      "clicks": 262,
      "spend": 48.2,
      "conversions": 11,
      "ctr": 0.011802,
      "frequency": 2
    },
    {
      "date": "2026-05-22",
      "ad_id": "ad_c",
      "campaign_id": "camp_200",
      "account_id": "act_mock_1001",
      "impressions": 30400,
      "clicks": 243,
      "spend": 79.8,
      "conversions": 6,
      "ctr": 0.007993,
      "frequency": 2
    },
    {
      "date": "2026-05-22",
      "ad_id": "ad_e",
      "campaign_id": "camp_300",
      "account_id": "act_mock_1001",
      "impressions": 15160,
      "clicks": 106,
      "spend": 37,
      "conversions": 4,
      "ctr": 0.006992,
      "frequency": 1.5
    },
    {
      "date": "2026-05-22",
      "ad_id": "ad_f",
      "campaign_id": "camp_300",
      "account_id": "act_mock_1001",
      "impressions": 12120,
      "clicks": 73,
      "spend": 29.6,
      "conversions": 3,
      "ctr": 0.006023,
      "frequency": 1.3
    },
    {
      "date": "2026-05-23",
      "ad_id": "ad_a",
      "campaign_id": "camp_100",
      "account_id": "act_mock_1001",
      "impressions": 38400,
      "clicks": 461,
      "spend": 79.5,
      "conversions": 15,
      "ctr": 0.012005,
      "frequency": 2.02
    },
    {
      "date": "2026-05-23",
      "ad_id": "ad_b",
      "campaign_id": "camp_100",
      "account_id": "act_mock_1001",
      "impressions": 22250,
      "clicks": 245,
      "spend": 49,
      "conversions": 12,
      "ctr": 0.011011,
      "frequency": 2.05
    },
    {
      "date": "2026-05-23",
      "ad_id": "ad_c",
      "campaign_id": "camp_200",
      "account_id": "act_mock_1001",
      "impressions": 30500,
      "clicks": 244,
      "spend": 81,
      "conversions": 7,
      "ctr": 0.008,
      "frequency": 2
    },
    {
      "date": "2026-05-23",
      "ad_id": "ad_e",
      "campaign_id": "camp_300",
      "account_id": "act_mock_1001",
      "impressions": 15200,
      "clicks": 106,
      "spend": 37.5,
      "conversions": 5,
      "ctr": 0.006974,
      "frequency": 1.5
    },
    {
      "date": "2026-05-23",
      "ad_id": "ad_f",
      "campaign_id": "camp_300",
      "account_id": "act_mock_1001",
      "impressions": 12150,
      "clicks": 73,
      "spend": 30,
      "conversions": 3,
      "ctr": 0.006008,
      "frequency": 1.3
    },
    {
      "date": "2026-05-24",
      "ad_id": "ad_a",
      "campaign_id": "camp_100",
      "account_id": "act_mock_1001",
      "impressions": 38480,
      "clicks": 462,
      "spend": 81,
      "conversions": 16,
      "ctr": 0.012006,
      "frequency": 2.03
    },
    {
      "date": "2026-05-24",
      "ad_id": "ad_b",
      "campaign_id": "camp_100",
      "account_id": "act_mock_1001",
      "impressions": 22300,
      "clicks": 250,
      "spend": 49.8,
      "conversions": 10,
      "ctr": 0.011211,
      "frequency": 2.1
    },
    {
      "date": "2026-05-24",
      "ad_id": "ad_c",
      "campaign_id": "camp_200",
      "account_id": "act_mock_1001",
      "impressions": 30600,
      "clicks": 245,
      "spend": 82.2,
      "conversions": 6,
      "ctr": 0.008007,
      "frequency": 2
    },
    {
      "date": "2026-05-24",
      "ad_id": "ad_e",
      "campaign_id": "camp_300",
      "account_id": "act_mock_1001",
      "impressions": 15240,
      "clicks": 107,
      "spend": 38,
      "conversions": 4,
      "ctr": 0.007021,
      "frequency": 1.5
    },
    {
      "date": "2026-05-24",
      "ad_id": "ad_f",
      "campaign_id": "camp_300",
      "account_id": "act_mock_1001",
      "impressions": 12180,
      "clicks": 73,
      "spend": 30.4,
      "conversions": 3,
      "ctr": 0.005993,
      "frequency": 1.3
    },
    {
      "date": "2026-05-25",
      "ad_id": "ad_a",
      "campaign_id": "camp_100",
      "account_id": "act_mock_1001",
      "impressions": 38560,
      "clicks": 463,
      "spend": 82.5,
      "conversions": 17,
      "ctr": 0.012007,
      "frequency": 2.04
    },
    {
      "date": "2026-05-25",
      "ad_id": "ad_b",
      "campaign_id": "camp_100",
      "account_id": "act_mock_1001",
      "impressions": 22350,
      "clicks": 255,
      "spend": 50.6,
      "conversions": 11,
      "ctr": 0.011409,
      "frequency": 1.8
    },
    {
      "date": "2026-05-25",
      "ad_id": "ad_c",
      "campaign_id": "camp_200",
      "account_id": "act_mock_1001",
      "impressions": 30700,
      "clicks": 246,
      "spend": 83.4,
      "conversions": 7,
      "ctr": 0.008013,
      "frequency": 2
    },
    {
      "date": "2026-05-25",
      "ad_id": "ad_e",
      "campaign_id": "camp_300",
      "account_id": "act_mock_1001",
      "impressions": 15280,
      "clicks": 107,
      "spend": 38.5,
      "conversions": 5,
      "ctr": 0.007003,
      "frequency": 1.5
    },
    {
      "date": "2026-05-25",
      "ad_id": "ad_f",
      "campaign_id": "camp_300",
      "account_id": "act_mock_1001",
      "impressions": 12210,
      "clicks": 73,
      "spend": 30.8,
      "conversions": 3,
      "ctr": 0.005979,
      "frequency": 1.3
    },
    {
      "date": "2026-05-26",
      "ad_id": "ad_a",
      "campaign_id": "camp_100",
      "account_id": "act_mock_1001",
      "impressions": 38640,
      "clicks": 464,
      "spend": 84,
      "conversions": 14,
      "ctr": 0.012008,
      "frequency": 2.04
    },
    {
      "date": "2026-05-26",
      "ad_id": "ad_b",
      "campaign_id": "camp_100",
      "account_id": "act_mock_1001",
      "impressions": 22400,
      "clicks": 260,
      "spend": 51.4,
      "conversions": 12,
      "ctr": 0.011607,
      "frequency": 1.85
    },
    {
      "date": "2026-05-26",
      "ad_id": "ad_c",
      "campaign_id": "camp_200",
      "account_id": "act_mock_1001",
      "impressions": 30800,
      "clicks": 246,
      "spend": 84.6,
      "conversions": 6,
      "ctr": 0.007987,
      "frequency": 2
    },
    {
      "date": "2026-05-26",
      "ad_id": "ad_e",
      "campaign_id": "camp_300",
      "account_id": "act_mock_1001",
      "impressions": 15320,
      "clicks": 107,
      "spend": 39,
      "conversions": 4,
      "ctr": 0.006984,
      "frequency": 1.5
    },
    {
      "date": "2026-05-26",
      "ad_id": "ad_f",
      "campaign_id": "camp_300",
      "account_id": "act_mock_1001",
      "impressions": 12240,
      "clicks": 73,
      "spend": 31.2,
      "conversions": 3,
      "ctr": 0.005964,
      "frequency": 1.3
    },
    {
      "date": "2026-05-27",
      "ad_id": "ad_a",
      "campaign_id": "camp_100",
      "account_id": "act_mock_1001",
      "impressions": 38720,
      "clicks": 465,
      "spend": 85.5,
      "conversions": 15,
      "ctr": 0.012009,
      "frequency": 2.04
    },
    {
      "date": "2026-05-27",
      "ad_id": "ad_b",
      "campaign_id": "camp_100",
      "account_id": "act_mock_1001",
      "impressions": 22450,
      "clicks": 265,
      "spend": 52.2,
      "conversions": 10,
      "ctr": 0.011804,
      "frequency": 1.9
    },
    {
      "date": "2026-05-27",
      "ad_id": "ad_c",
      "campaign_id": "camp_200",
      "account_id": "act_mock_1001",
      "impressions": 30900,
      "clicks": 247,
      "spend": 85.8,
      "conversions": 7,
      "ctr": 0.007994,
      "frequency": 2
    },
    {
      "date": "2026-05-27",
      "ad_id": "ad_e",
      "campaign_id": "camp_300",
      "account_id": "act_mock_1001",
      "impressions": 15360,
      "clicks": 108,
      "spend": 39.5,
      "conversions": 5,
      "ctr": 0.007031,
      "frequency": 1.5
    },
    {
      "date": "2026-05-27",
      "ad_id": "ad_f",
      "campaign_id": "camp_300",
      "account_id": "act_mock_1001",
      "impressions": 12270,
      "clicks": 74,
      "spend": 31.6,
      "conversions": 3,
      "ctr": 0.006031,
      "frequency": 1.3
    },
    {
      "date": "2026-05-28",
      "ad_id": "ad_a",
      "campaign_id": "camp_100",
      "account_id": "act_mock_1001",
      "impressions": 38800,
      "clicks": 466,
      "spend": 87,
      "conversions": 16,
      "ctr": 0.01201,
      "frequency": 2.05
    },
    {
      "date": "2026-05-28",
      "ad_id": "ad_b",
      "campaign_id": "camp_100",
      "account_id": "act_mock_1001",
      "impressions": 22500,
      "clicks": 247,
      "spend": 53,
      "conversions": 11,
      "ctr": 0.010978,
      "frequency": 1.95
    },
    {
      "date": "2026-05-28",
      "ad_id": "ad_c",
      "campaign_id": "camp_200",
      "account_id": "act_mock_1001",
      "impressions": 31000,
      "clicks": 248,
      "spend": 87,
      "conversions": 6,
      "ctr": 0.008,
      "frequency": 2
    },
    {
      "date": "2026-05-28",
      "ad_id": "ad_e",
      "campaign_id": "camp_300",
      "account_id": "act_mock_1001",
      "impressions": 15400,
      "clicks": 108,
      "spend": 40,
      "conversions": 4,
      "ctr": 0.007013,
      "frequency": 1.5
    },
    {
      "date": "2026-05-28",
      "ad_id": "ad_f",
      "campaign_id": "camp_300",
      "account_id": "act_mock_1001",
      "impressions": 12300,
      "clicks": 74,
      "spend": 32,
      "conversions": 3,
      "ctr": 0.006016,
      "frequency": 1.3
    },
    {
      "date": "2026-05-29",
      "ad_id": "ad_a",
      "campaign_id": "camp_100",
      "account_id": "act_mock_1001",
      "impressions": 38880,
      "clicks": 467,
      "spend": 88.5,
      "conversions": 17,
      "ctr": 0.012011,
      "frequency": 2.06
    },
    {
      "date": "2026-05-29",
      "ad_id": "ad_b",
      "campaign_id": "camp_100",
      "account_id": "act_mock_1001",
      "impressions": 22550,
      "clicks": 253,
      "spend": 53.8,
      "conversions": 12,
      "ctr": 0.01122,
      "frequency": 2
    },
    {
      "date": "2026-05-29",
      "ad_id": "ad_c",
      "campaign_id": "camp_200",
      "account_id": "act_mock_1001",
      "impressions": 31100,
      "clicks": 249,
      "spend": 88.2,
      "conversions": 7,
      "ctr": 0.008006,
      "frequency": 2
    },
    {
      "date": "2026-05-29",
      "ad_id": "ad_e",
      "campaign_id": "camp_300",
      "account_id": "act_mock_1001",
      "impressions": 15440,
      "clicks": 108,
      "spend": 40.5,
      "conversions": 5,
      "ctr": 0.006995,
      "frequency": 1.5
    },
    {
      "date": "2026-05-29",
      "ad_id": "ad_f",
      "campaign_id": "camp_300",
      "account_id": "act_mock_1001",
      "impressions": 12330,
      "clicks": 74,
      "spend": 32.4,
      "conversions": 3,
      "ctr": 0.006002,
      "frequency": 1.3
    },
    {
      "date": "2026-05-30",
      "ad_id": "ad_a",
      "campaign_id": "camp_100",
      "account_id": "act_mock_1001",
      "impressions": 38960,
      "clicks": 468,
      "spend": 90,
      "conversions": 14,
      "ctr": 0.012012,
      "frequency": 2.06
    },
    {
      "date": "2026-05-30",
      "ad_id": "ad_b",
      "campaign_id": "camp_100",
      "account_id": "act_mock_1001",
      "impressions": 22600,
      "clicks": 258,
      "spend": 54.6,
      "conversions": 10,
      "ctr": 0.011416,
      "frequency": 2.05
    },
    {
      "date": "2026-05-30",
      "ad_id": "ad_c",
      "campaign_id": "camp_200",
      "account_id": "act_mock_1001",
      "impressions": 31200,
      "clicks": 250,
      "spend": 89.4,
      "conversions": 6,
      "ctr": 0.008013,
      "frequency": 2
    },
    {
      "date": "2026-05-30",
      "ad_id": "ad_f",
      "campaign_id": "camp_300",
      "account_id": "act_mock_1001",
      "impressions": 12360,
      "clicks": 74,
      "spend": 32.8,
      "conversions": 3,
      "ctr": 0.005987,
      "frequency": 1.3
    },
    {
      "date": "2026-05-31",
      "ad_id": "ad_a",
      "campaign_id": "camp_100",
      "account_id": "act_mock_1001",
      "impressions": 39040,
      "clicks": 468,
      "spend": 91.5,
      "conversions": 15,
      "ctr": 0.011988,
      "frequency": 2.06
    },
    {
      "date": "2026-05-31",
      "ad_id": "ad_b",
      "campaign_id": "camp_100",
      "account_id": "act_mock_1001",
      "impressions": 22650,
      "clicks": 263,
      "spend": 55.4,
      "conversions": 11,
      "ctr": 0.011611,
      "frequency": 2.1
    },
    {
      "date": "2026-05-31",
      "ad_id": "ad_c",
      "campaign_id": "camp_200",
      "account_id": "act_mock_1001",
      "impressions": 31300,
      "clicks": 250,
      "spend": 90.6,
      "conversions": 7,
      "ctr": 0.007987,
      "frequency": 2
    },
    {
      "date": "2026-05-31",
      "ad_id": "ad_f",
      "campaign_id": "camp_300",
      "account_id": "act_mock_1001",
      "impressions": 12390,
      "clicks": 74,
      "spend": 33.2,
      "conversions": 3,
      "ctr": 0.005973,
      "frequency": 1.3
    },
    {
      "date": "2026-06-01",
      "ad_id": "ad_a",
      "campaign_id": "camp_100",
      "account_id": "act_mock_1001",
      "impressions": 39120,
      "clicks": 469,
      "spend": 93,
      "conversions": 16,
      "ctr": 0.011989,
      "frequency": 2.07
    },
    {
      "date": "2026-06-01",
      "ad_id": "ad_b",
      "campaign_id": "camp_100",
      "account_id": "act_mock_1001",
      "impressions": 22700,
      "clicks": 268,
      "spend": 56.2,
      "conversions": 12,
      "ctr": 0.011806,
      "frequency": 1.8
    },
    {
      "date": "2026-06-01",
      "ad_id": "ad_c",
      "campaign_id": "camp_200",
      "account_id": "act_mock_1001",
      "impressions": 31400,
      "clicks": 251,
      "spend": 91.8,
      "conversions": 6,
      "ctr": 0.007994,
      "frequency": 2
    },
    {
      "date": "2026-06-01",
      "ad_id": "ad_e",
      "campaign_id": "camp_300",
      "account_id": "act_mock_1001",
      "impressions": 15560,
      "clicks": 109,
      "spend": 42,
      "conversions": 4,
      "ctr": 0.007005,
      "frequency": 1.5
    },
    {
      "date": "2026-06-01",
      "ad_id": "ad_f",
      "campaign_id": "camp_300",
      "account_id": "act_mock_1001",
      "impressions": 12420,
      "clicks": 75,
      "spend": 33.6,
      "conversions": 3,
      "ctr": 0.006039,
      "frequency": 1.3
    },
    {
      "date": "2026-06-02",
      "ad_id": "ad_a",
      "campaign_id": "camp_100",
      "account_id": "act_mock_1001",
      "impressions": 39200,
      "clicks": 470,
      "spend": 94.5,
      "conversions": 17,
      "ctr": 0.01199,
      "frequency": 2.08
    },
    {
      "date": "2026-06-02",
      "ad_id": "ad_b",
      "campaign_id": "camp_100",
      "account_id": "act_mock_1001",
      "impressions": 22750,
      "clicks": 250,
      "spend": 57,
      "conversions": 10,
      "ctr": 0.010989,
      "frequency": 1.85
    }
  ]
}
