{
  "page": 2,
  "page_size": 100,
  "total_pages": 2,
  "total_rows": 150,
  "account_id": "act_mock_1001",
  "data": [
    {
      "date": "2026-06-02",
      "ad_id": "ad_c",
      "campaign_id": "camp_200",
      "account_id": "act_mock_1001",
      "impressions": 31500,
      "clicks": 252,
      "spend": 93,
      "conversions": 7,
      "ctr": 0.008,
      "frequency": 2
    },
    {
      "date": "2026-06-02",
      "ad_id": "ad_e",
      "campaign_id": "camp_300",
      "account_id": "act_mock_1001",
      "impressions": 15600,
      "clicks": 109,
      "spend": 42.5,
      "conversions": 5,
      "ctr": 0.006987,
      "frequency": 1.5
    },
    {
      "date": "2026-06-02",
      "ad_id": "ad_f",
      "campaign_id": "camp_300",
      "account_id": "act_mock_1001",
      "impressions": 12450,
      "clicks": 75,
      "spend": 34,
      "conversions": 3,
      "ctr": 0.006024,
      "frequency": 1.3
    },
    {
      "date": "2026-06-03",
      "ad_id": "ad_a",
      "campaign_id": "camp_100",
      "account_id": "act_mock_1001",
      "impressions": 39280,
      "clicks": 471,
      "spend": 96,
      "conversions": 14,
      "ctr": 0.011991,
      "frequency": 2.08
    },
    {
      "date": "2026-06-03",
      "ad_id": "ad_b",
      "campaign_id": "camp_100",
      "account_id": "act_mock_1001",
      "impressions": 22800,
      "clicks": 255,
      "spend": 57.8,
      "conversions": 11,
      "ctr": 0.011184,
      "frequency": 1.9
    },
    {
      "date": "2026-06-03",
      "ad_id": "ad_c",
      "campaign_id": "camp_200",
      "account_id": "act_mock_1001",
      "impressions": 31600,
      "clicks": 253,
      "spend": 94.2,
      "conversions": 6,
      "ctr": 0.008006,
      "frequency": 2
    },
    {
      "date": "2026-06-03",
      "ad_id": "ad_e",
      "campaign_id": "camp_300",
      "account_id": "act_mock_1001",
      "impressions": 15640,
      "clicks": 109,
      "spend": 43,
      "conversions": 4,
      "ctr": 0.006969,
      "frequency": 1.5
    },
    {
      "date": "2026-06-03",
      "ad_id": "ad_f",
      "campaign_id": "camp_300",
      "account_id": "act_mock_1001",
      "impressions": 12480,
      "clicks": 75,
      "spend": 34.4,
      "conversions": 3,
      "ctr": 0.00601,
      "frequency": 1.3
    },
    {
      "date": "2026-06-04",
      "ad_id": "ad_a",
      "campaign_id": "camp_100",
      "account_id": "act_mock_1001",
      "impressions": 39360,
      "clicks": 472,
      "spend": 97.5,
      "conversions": 15,
      "ctr": 0.011992,
      "frequency": 2.08
    },
    {
      "date": "2026-06-04",
      "ad_id": "ad_b",
      "campaign_id": "camp_100",
      "account_id": "act_mock_1001",
      "impressions": 22850,
      "clicks": 260,
      "spend": 58.6,
      "conversions": 12,
      "ctr": 0.011379,
      "frequency": 1.95
    },
    {
      "date": "2026-06-04",
      "ad_id": "ad_c",
      "campaign_id": "camp_200",
      "account_id": "act_mock_1001",
      "impressions": 31700,
      "clicks": 254,
      "spend": 95.4,
      "conversions": 7,
      "ctr": 0.008013,
      "frequency": 2
    },
    {
      "date": "2026-06-04",
      "ad_id": "ad_e",
      "campaign_id": "camp_300",
      "account_id": "act_mock_1001",
      "impressions": 15680,
      "clicks": 110,
      "spend": 43.5,
      "conversions": 5,
      "ctr": 0.007015,
      "frequency": 1.5
    },
    {
      "date": "2026-06-04",
      "ad_id": "ad_f",
      "campaign_id": "camp_300",
      "account_id": "act_mock_1001",
      "impressions": 12510,
      "clicks": 75,
      "spend": 34.8,
      "conversions": 3,
      "ctr": 0.005995,
      "frequency": 1.3
    },
    {
      "date": "2026-06-05",
      "ad_id": "ad_a",
      "campaign_id": "camp_100",
      "account_id": "act_mock_1001",
      "impressions": 39440,
      "clicks": 473,
      "spend": 99,
      "conversions": 16,
      "ctr": 0.011993,
      "frequency": 2.09
    },
    {
      "date": "2026-06-05",
      "ad_id": "ad_b",
      "campaign_id": "camp_100",
      "account_id": "act_mock_1001",
      "impressions": 22900,
      "clicks": 266,
      "spend": 59.4,
      "conversions": 10,
      "ctr": 0.011616,
      "frequency": 2
    },
    {
      "date": "2026-06-05",
      "ad_id": "ad_c",
      "campaign_id": "camp_200",
      "account_id": "act_mock_1001",
      "impressions": 31800,
      "clicks": 254,
      "spend": 96.6,
      "conversions": 6,
      "ctr": 0.007987,
      "frequency": 2
    },
    {
      "date": "2026-06-05",
      "ad_id": "ad_e",
      "campaign_id": "camp_300",
      "account_id": "act_mock_1001",
      "impressions": 15720,
      "clicks": 110,
      "spend": 44,
      "conversions": 4,
      "ctr": 0.006997,
      "frequency": 1.5
    },
    {
      "date": "2026-06-05",
      "ad_id": "ad_f",
      "campaign_id": "camp_300",
      "account_id": "act_mock_1001",
      "impressions": 12540,
      "clicks": 75,
      "spend": 35.2,
      "conversions": 3,
      "ctr": 0.005981,
      "frequency": 1.3
    },
    {
      "date": "2026-06-06",
      "ad_id": "ad_a",
      "campaign_id": "camp_100",
      "account_id": "act_mock_1001",
      "impressions": 39520,
      "clicks": 474,
      "spend": 100.5,
      "conversions": 17,
      "ctr": 0.011994,
      "frequency": 2.1
    },
    {
      "date": "2026-06-06",
      "ad_id": "ad_b",
      "campaign_id": "camp_100",
      "account_id": "act_mock_1001",
      "impressions": 22950,
      "clicks": 271,
      "spend": 60.2,
      "conversions": 11,
      "ctr": 0.011808,
      "frequency": 2.05
    },
    {
      "date": "2026-06-06",
      "ad_id": "ad_c",
      "campaign_id": "camp_200",
      "account_id": "act_mock_1001",
      "impressions": 31900,
      "clicks": 255,
      "spend": 97.8,
      "conversions": 7,
      "ctr": 0.007994,
      "frequency": 2
    },
    {
      "date": "2026-06-06",
      "ad_id": "ad_e",
      "campaign_id": "camp_300",
      "account_id": "act_mock_1001",
      "impressions": 15760,
      "clicks": 110,
      "spend": 44.5,
      "conversions": 5,
      "ctr": 0.00698,
      "frequency": 1.5
    },
    {
      "date": "2026-06-06",
      "ad_id": "ad_f",
      "campaign_id": "camp_300",
      "account_id": "act_mock_1001",
      "impressions": 12570,
      "clicks": 75,
      "spend": 35.6,
      "conversions": 3,
      "ctr": 0.005967,
      "frequency": 1.3
    },
    {
      "date": "2026-06-07",
      "ad_id": "ad_a",
      "campaign_id": "camp_100",
      "account_id": "act_mock_1001",
      "impressions": 39600,
      "clicks": 475,
      "spend": 102,
      "conversions": 14,
      "ctr": 0.011995,
      "frequency": 2.1
    },
    {
      "date": "2026-06-07",
      "ad_id": "ad_b",
      "campaign_id": "camp_100",
      "account_id": "act_mock_1001",
      "impressions": 23000,
      "clicks": 253,
      "spend": 61,
      "conversions": 12,
      "ctr": 0.011,
      "frequency": 2.1
    },
    {
      "date": "2026-06-07",
      "ad_id": "ad_c",
      "campaign_id": "camp_200",
      "account_id": "act_mock_1001",
      "impressions": 32000,
      "clicks": 256,
      "spend": 99,
      "conversions": 6,
      "ctr": 0.008,
      "frequency": 2
    },
    {
      "date": "2026-06-07",
      "ad_id": "ad_e",
      "campaign_id": "camp_300",
      "account_id": "act_mock_1001",
      "impressions": 15800,
      "clicks": 111,
      "spend": 45,
      "conversions": 4,
      "ctr": 0.007025,
      "frequency": 1.5
    },
    {
      "date": "2026-06-07",
      "ad_id": "ad_f",
      "campaign_id": "camp_300",
      "account_id": "act_mock_1001",
      "impressions": 12600,
      "clicks": 76,
      "spend": 36,
      "conversions": 3,
      "ctr": 0.006032,
      "frequency": 1.3
    },
    {
      "date": "2026-06-08",
      "ad_id": "ad_a",
      "campaign_id": "camp_100",
      "account_id": "act_mock_1001",
      "impressions": 39680,
      "clicks": 476,
      "spend": 103.5,
      "conversions": 15,
      "ctr": 0.011996,
      "frequency": 2.1
    },
    {
      "date": "2026-06-08",
      "ad_id": "ad_b",
      "campaign_id": "camp_100",
      "account_id": "act_mock_1001",
      "impressions": 23050,
      "clicks": 258,
      "spend": 61.8,
      "conversions": 10,
      "ctr": 0.011193,
      "frequency": 1.8
    },
    {
      "date": "2026-06-08",
      "ad_id": "ad_c",
      "campaign_id": "camp_200",
      "account_id": "act_mock_1001",
      "impressions": 32100,
      "clicks": 257,
      "spend": 100.2,
      "conversions": 7,
      "ctr": 0.008006,
      "frequency": 2
    },
    {
      "date": "2026-06-08",
      "ad_id": "ad_e",
      "campaign_id": "camp_300",
      "account_id": "act_mock_1001",
      "impressions": 15840,
      "clicks": 111,
      "spend": 45.5,
      "conversions": 5,
      "ctr": 0.007008,
      "frequency": 1.5
    },
    {
      "date": "2026-06-08",
      "ad_id": "ad_f",
      "campaign_id": "camp_300",
      "account_id": "act_mock_1001",
      "impressions": 12630,
      "clicks": 76,
      "spend": 36.4,
      "conversions": 3,
      "ctr": 0.006017,
      "frequency": 1.3
    },
    {
      "date": "2026-06-09",
      "ad_id": "ad_a",
      "campaign_id": "camp_100",
      "account_id": "act_mock_1001",
      "impressions": 39760,
      "clicks": 477,
      "spend": 105,
      "conversions": 16,
      "ctr": 0.011997,
      "frequency": 2.11
    },
    {
      "date": "2026-06-09",
      "ad_id": "ad_b",
      "campaign_id": "camp_100",
      "account_id": "act_mock_1001",
      "impressions": 23100,
      "clicks": 263,
      "spend": 62.6,
      "conversions": 11,
      "ctr": 0.011385,
      "frequency": 1.85
    },
    {
      "date": "2026-06-09",
      "ad_id": "ad_c",
      "campaign_id": "camp_200",
      "account_id": "act_mock_1001",
      "impressions": 32200,
      "clicks": 258,
      "spend": 101.4,
      "conversions": 6,
      "ctr": 0.008012,
      "frequency": 2
    },
    {
      "date": "2026-06-09",
      "ad_id": "ad_e",
      "campaign_id": "camp_300",
      "account_id": "act_mock_1001",
      "impressions": 15880,
      "clicks": 111,
      "spend": 46,
      "conversions": 4,
      "ctr": 0.00699,
      "frequency": 1.5
    },
    {
      "date": "2026-06-09",
      "ad_id": "ad_f",
      "campaign_id": "camp_300",
      "account_id": "act_mock_1001",
      "impressions": 12660,
      "clicks": 76,
      "spend": 36.8,
      "conversions": 3,
      "ctr": 0.006003,
      "frequency": 1.3
    },
    {
      "date": "2026-06-10",
      "ad_id": "ad_a",
      "campaign_id": "camp_100",
      "account_id": "act_mock_1001",
      "impressions": 44300,
      "clicks": 399,
      "spend": 95,
      "conversions": 10,
      "ctr": 0.009007,
      "frequency": 3.2
    },
    {
      "date": "2026-06-10",
      "ad_id": "ad_b",
      "campaign_id": "camp_100",
      "account_id": "act_mock_1001",
      "impressions": 23150,
      "clicks": 269,
      "spend": 63.4,
      "conversions": 12,
      "ctr": 0.01162,
      "frequency": 1.9
    },
    {
      "date": "2026-06-10",
      "ad_id": "ad_c",
      "campaign_id": "camp_200",
      "account_id": "act_mock_1001",
      "impressions": 59600,
      "clicks": 477,
      "spend": 140,
      "conversions": 7,
      "ctr": 0.008003,
      "frequency": 2.5
    },
    {
      "date": "2026-06-10",
      "ad_id": "ad_e",
      "campaign_id": "camp_300",
      "account_id": "act_mock_1001",
      "impressions": 15920,
      "clicks": 111,
      "spend": 46.5,
      "conversions": 5,
      "ctr": 0.006972,
      "frequency": 1.5
    },
    {
      "date": "2026-06-10",
      "ad_id": "ad_f",
      "campaign_id": "camp_300",
      "account_id": "act_mock_1001",
      "impressions": 12690,
      "clicks": 76,
      "spend": 37.2,
      "conversions": 3,
      "ctr": 0.005989,
      "frequency": 1.3
    },
    {
      "date": "2026-06-11",
      "ad_id": "ad_a",
      "campaign_id": "camp_100",
      "account_id": "act_mock_1001",
      "impressions": 44400,
      "clicks": 400,
      "spend": 99,
      "conversions": 8,
      "ctr": 0.009009,
      "frequency": 3.3
    },
    {
      "date": "2026-06-11",
      "ad_id": "ad_b",
      "campaign_id": "camp_100",
      "account_id": "act_mock_1001",
      "impressions": 23200,
      "clicks": 274,
      "spend": 64.2,
      "conversions": 10,
      "ctr": 0.01181,
      "frequency": 1.95
    },
    {
      "date": "2026-06-11",
      "ad_id": "ad_c",
      "campaign_id": "camp_200",
      "account_id": "act_mock_1001",
      "impressions": 59800,
      "clicks": 478,
      "spend": 148,
      "conversions": 6,
      "ctr": 0.007993,
      "frequency": 2.5
    },
    {
      "date": "2026-06-11",
      "ad_id": "ad_e",
      "campaign_id": "camp_300",
      "account_id": "act_mock_1001",
      "impressions": 15960,
      "clicks": 112,
      "spend": 47,
      "conversions": 4,
      "ctr": 0.007018,
      "frequency": 1.5
    },
    {
      "date": "2026-06-11",
      "ad_id": "ad_f",
      "campaign_id": "camp_300",
      "account_id": "act_mock_1001",
      "impressions": 12720,
      "clicks": 76,
      "spend": 37.6,
      "conversions": 3,
      "ctr": 0.005975,
      "frequency": 1.3
    },
    {
      "date": "2026-06-12",
      "ad_id": "ad_a",
      "campaign_id": "camp_100",
      "account_id": "act_mock_1001",
      "impressions": 44500,
      "clicks": 400,
      "spend": 103,
      "conversions": 9,
      "ctr": 0.008989,
      "frequency": 3.4
    },
    {
      "date": "2026-06-12",
      "ad_id": "ad_b",
      "campaign_id": "camp_100",
      "account_id": "act_mock_1001",
      "impressions": 23250,
      "clicks": 256,
      "spend": 65,
      "conversions": 11,
      "ctr": 0.011011,
      "frequency": 2
    },
    {
      "date": "2026-06-12",
      "ad_id": "ad_c",
      "campaign_id": "camp_200",
      "account_id": "act_mock_1001",
      "impressions": 60000,
      "clicks": 480,
      "spend": 156,
      "conversions": 7,
      "ctr": 0.008,
      "frequency": 2.5
    },
    {
      "date": "2026-06-12",
      "ad_id": "ad_e",
      "campaign_id": "camp_300",
      "account_id": "act_mock_1001",
      "impressions": 16000,
      "clicks": 112,
      "spend": 47.5,
      "conversions": 5,
      "ctr": 0.007,
      "frequency": 1.5
    },
    {
      "date": "2026-06-12",
      "ad_id": "ad_f",
      "campaign_id": "camp_300",
      "account_id": "act_mock_1001",
      "impressions": 12750,
      "clicks": 77,
      "spend": 38,
      "conversions": 3,
      "ctr": 0.006039,
      "frequency": 1.3
    },
    {
      "date": "2026-06-13",
      "ad_id": "ad_a",
      "campaign_id": "camp_100",
      "account_id": "act_mock_1001",
      "impressions": 44600,
      "clicks": 401,
      "spend": 107,
      "conversions": 10,
      "ctr": 0.008991,
      "frequency": 3.5
    },
    {
      "date": "2026-06-13",
      "ad_id": "ad_b",
      "campaign_id": "camp_100",
      "account_id": "act_mock_1001",
      "impressions": 23300,
      "clicks": 261,
      "spend": 65.8,
      "conversions": 12,
      "ctr": 0.011202,
      "frequency": 2.05
    },
    {
      "date": "2026-06-13",
      "ad_id": "ad_c",
      "campaign_id": "camp_200",
      "account_id": "act_mock_1001",
      "impressions": 60200,
      "clicks": 482,
      "spend": 164,
      "conversions": 6,
      "ctr": 0.008007,
      "frequency": 2.5
    },
    {
      "date": "2026-06-13",
      "ad_id": "ad_e",
      "campaign_id": "camp_300",
      "account_id": "act_mock_1001",
      "impressions": 16040,
      "clicks": 112,
      "spend": 48,
      "conversions": 4,
      "ctr": 0.006983,
      "frequency": 1.5
    },
    {
      "date": "2026-06-13",
      "ad_id": "ad_f",
      "campaign_id": "camp_300",
      "account_id": "act_mock_1001",
      "impressions": 12780,
      "clicks": 77,
      "spend": 38.4,
      "conversions": 3,
      "ctr": 0.006025,
      "frequency": 1.3
    },
    {
      "date": "2026-06-14",
      "ad_id": "ad_a",
      "campaign_id": "camp_100",
      "account_id": "act_mock_1001",
      "impressions": 44700,
      "clicks": 402,
      "spend": 111,
      "conversions": 8,
      "ctr": 0.008993,
      "frequency": 3.6
    },
    {
      "date": "2026-06-14",
      "ad_id": "ad_b",
      "campaign_id": "camp_100",
      "account_id": "act_mock_1001",
      "impressions": 23350,
      "clicks": 266,
      "spend": 66.6,
      "conversions": 10,
      "ctr": 0.011392,
      "frequency": 2.1
    },
    {
      "date": "2026-06-14",
      "ad_id": "ad_c",
      "campaign_id": "camp_200",
      "account_id": "act_mock_1001",
      "impressions": 60400,
      "clicks": 483,
      "spend": 172,
      "conversions": 7,
      "ctr": 0.007997,
      "frequency": 2.5
    },
    {
      "date": "2026-06-14",
      "ad_id": "ad_e",
      "campaign_id": "camp_300",
      "account_id": "act_mock_1001",
      "impressions": 16080,
      "clicks": 113,
      "spend": 48.5,
      "conversions": 5,
      "ctr": 0.007027,
      "frequency": 1.5
    },
    {
      "date": "2026-06-14",
      "ad_id": "ad_f",
      "campaign_id": "camp_300",
      "account_id": "act_mock_1001",
      "impressions": 12810,
      "clicks": 77,
      "spend": 38.8,
      "conversions": 3,
      "ctr": 0.006011,
      "frequency": 1.3
    },
    {
      "date": "2026-06-15",
      "ad_id": "ad_a",
      "campaign_id": "camp_100",
      "account_id": "act_mock_1001",
      "impressions": 44800,
      "clicks": 403,
      "spend": 115,
      "conversions": 9,
      "ctr": 0.008996,
      "frequency": 3.7
    },
    {
      "date": "2026-06-15",
      "ad_id": "ad_b",
      "campaign_id": "camp_100",
      "account_id": "act_mock_1001",
      "impressions": 23400,
      "clicks": 271,
      "spend": 67.4,
      "conversions": 11,
      "ctr": 0.011581,
      "frequency": 1.8
    },
    {
      "date": "2026-06-15",
      "ad_id": "ad_c",
      "campaign_id": "camp_200",
      "account_id": "act_mock_1001",
      "impressions": 60600,
      "clicks": 485,
      "spend": 180,
      "conversions": 6,
      "ctr": 0.008003,
      "frequency": 2.5
    },
    {
      "date": "2026-06-15",
      "ad_id": "ad_d",
      "campaign_id": "camp_200",
      "account_id": "act_mock_1001",
      "impressions": 8000,
      "clicks": 96,
      "spend": 22,
      "conversions": 2,
      "ctr": 0.012,
      "frequency": 1.1
    },
    {
      "date": "2026-06-15",
      "ad_id": "ad_e",
      "campaign_id": "camp_300",
      "account_id": "act_mock_1001",
      "impressions": 16120,
      "clicks": 113,
      "spend": 49,
      "conversions": 4,
      "ctr": 0.00701,
      "frequency": 1.5
    },
    {
      "date": "2026-06-15",
      "ad_id": "ad_f",
      "campaign_id": "camp_300",
      "account_id": "act_mock_1001",
      "impressions": 12840,
      "clicks": 77,
      "spend": 39.2,
      "conversions": 3,
      "ctr": 0.005997,
      "frequency": 1.3
    },
    {
      "date": "2026-06-16",
      "ad_id": "ad_a",
      "campaign_id": "camp_100",
      "account_id": "act_mock_1001",
      "impressions": 44900,
      "clicks": 404,
      "spend": 119,
      "conversions": 10,
      "ctr": 0.008998,
      "frequency": 3.8
    },
    {
      "date": "2026-06-16",
      "ad_id": "ad_b",
      "campaign_id": "camp_100",
      "account_id": "act_mock_1001",
      "impressions": 23450,
      "clicks": 277,
      "spend": 68.2,
      "conversions": 12,
      "ctr": 0.011812,
      "frequency": 1.85
    },
    {
      "date": "2026-06-16",
      "ad_id": "ad_c",
      "campaign_id": "camp_200",
      "account_id": "act_mock_1001",
      "impressions": 60800,
      "clicks": 486,
      "spend": 188,
      "conversions": 7,
      "ctr": 0.007993,
      "frequency": 2.5
    },
    {
      "date": "2026-06-16",
      "ad_id": "ad_d",
      "campaign_id": "camp_200",
      "account_id": "act_mock_1001",
      "impressions": 8000,
      "clicks": 96,
      "spend": 22,
      "conversions": 2,
      "ctr": 0.012,
      "frequency": 1.1
    },
    {
      "date": "2026-06-16",
      "ad_id": "ad_e",
      "campaign_id": "camp_300",
      "account_id": "act_mock_1001",
      "impressions": 16160,
      "clicks": 113,
      "spend": 49.5,
      "conversions": 5,
      "ctr": 0.006993,
      "frequency": 1.5
    },
    {
      "date": "2026-06-16",
      "ad_id": "ad_f",
      "campaign_id": "camp_300",
      "account_id": "act_mock_1001",
      "impressions": 12870,
      "clicks": 77,
      "spend": 39.6,
      "conversions": 3,
      "ctr": 0.005983,
      "frequency": 1.3
    }
  ]
}
